<?xml version="1.0" encoding="utf-8"?>
<!-- Generator: Adobe Illustrator 19.1.0, SVG Export Plug-In . SVG Version: 6.00 Build 0)  -->
<svg version="1.1" id="Layer_1" xmlns="http://www.w3.org/2000/svg" xmlns:xlink="http://www.w3.org/1999/xlink" x="0px" y="0px"
	 viewBox="-271 493 256 295" style="enable-background:new -271 493 256 295;" xml:space="preserve">
<g>
	<path d="M-143,493L-143,493c-70.3,0-128,18.8-128,42.7c0,6.3,15.1,95.4,21.3,130.5c2.5,16.3,43.9,38.9,106.7,38.9l0,0
		c62.7,0,102.9-22.6,106.7-38.9C-30.1,631-15,541.9-15,535.7C-16.3,511.8-72.7,493-143,493L-143,493z M-143,676.2
		c-22.6,0-40.2-17.6-40.2-40.2s17.6-40.2,40.2-40.2s40.2,17.6,40.2,40.2C-102.8,657.4-120.4,676.2-143,676.2L-143,676.2z
		 M-143,548.2c-45.2,0-81.6-7.5-81.6-17.6c0-10,36.4-17.6,81.6-17.6s81.6,7.5,81.6,17.6C-61.4,540.7-97.8,548.2-143,548.2
		L-143,548.2z"/>
	<path d="M-50.4,700c-2.5,0-3.8,1.3-3.8,1.3s-31.4,25.1-87.8,25.1s-87.8-25.1-87.8-25.1s-2.5-1.3-3.8-1.3c-2.5,0-5,1.3-5,5v1.3
		c5,26.4,8.8,45.2,8.8,47.7c3.8,18.8,41.4,33.9,86.6,33.9l0,0c45.2,0,82.8-15.1,86.6-33.9c0-2.5,3.8-21.3,8.8-47.7v-1.3
		C-46.6,702.5-47.9,700-50.4,700L-50.4,700z"/>
	<circle cx="-143" cy="634.8" r="20.1"/>
</g>
</svg>
