<?xml version="1.0" encoding="utf-8"?>
<!-- Generator: Adobe Illustrator 19.1.0, SVG Export Plug-In . SVG Version: 6.00 Build 0)  -->
<svg version="1.1" id="Layer_1" xmlns="http://www.w3.org/2000/svg" xmlns:xlink="http://www.w3.org/1999/xlink" x="0px" y="0px"
	 viewBox="-271 533 256 216" style="enable-background:new -271 533 256 216;" xml:space="preserve">
<g>
	<path d="M-140.9,630.5C-140.9,630.5-140.9,630.5-140.9,630.5C-140.9,630.5-140.9,630.5-140.9,630.5L-140.9,630.5z"/>
	<path d="M-166.7,604.6c-0.1,0.1-0.3,0.2-0.5,0.4C-167.1,605-166.9,604.7-166.7,604.6z"/>
	<path d="M-166.7,604.6C-166.7,604.6-166.7,604.6-166.7,604.6C-166.7,604.6-166.7,604.6-166.7,604.6L-166.7,604.6z"/>
	<path d="M-183,730.4c2.6-2.6,4.2-20.3,7.3-26.4c0.8-1.6,2.1-9.3,0.5-10.9c-0.4-0.4-0.8-1.3-1.2-2.1c-2.4,2.9-10.5-0.1-13.2-1.5
		c-0.4-0.2-1.5,0.5-1.8,0.1c-0.5-0.5-0.6-1.1-0.5-1.7c-2.7,2.2-6.3,3.2-8.3,5.2c-6.8,6.8-17.5,10.2-25,17.7c-1.4,1.4-2.3,3-3,4.9
		c5,2.6,9.4,6.7,14.9,8.1c5.1,1.3,10.9,2,16.1,3.7c2.2,0.7,4.8,0.2,6.9,0.9c2.6,0.9,5,1.9,7.4,2.8
		C-183.1,730.7-183.1,730.5-183,730.4z"/>
	<path d="M-15.4,686.1c-1.1-2.2-2.9-4-5-5.7c-0.7-0.2-1.2-0.5-1.4-0.7c-2.3-2.3-7.6-2.6-9.6-4.6c-3.2-3.2-8.1-6.1-13.8-8.1
		c-1.2-0.6-2.3-1.2-3.2-2.1c-1-1-7-2.3-8.7-3.2c-0.9-0.5-3,0.3-3.7-0.4c-1.7-1.7-8.8-2.9-13.9-4.5c-0.7,0-2-0.5-2.2-0.7
		c-0.2-0.2-4.1-0.7-5.4-2.1c-0.1-0.1-0.7-5.5-0.7-6.2c0-0.2-0.6-1.2-0.2-1.6c0.1-0.1,0.1-0.1,0.2-0.2c-2.4-14.7-4.2-30.8-5.9-32.3
		c-2.5-2.1-4-14-6.8-16.3c-2.9-2.5-4.8-5.2-7-7.3c0,0,0,0,0,0c-0.9-4.7-2.5-9.9-3-10.4c-0.8-0.7,0.4-3.9-0.4-4.6
		c-2.6-2.2-5.9-14.9-8.4-17c-3.2-2.7-4.7-6.8-7.7-9.3c-7.4-6.3-19.8-15.6-33.4-14.9c-0.6-0.2-1.2-0.4-1.7-0.6
		c-0.9-0.3-1.9-0.5-2.9-0.4v0c-4.4,0.1-10,2.8-13.9,1.9c-1.6-0.4-3.5-0.5-5.4-0.4c0,0-0.1,0-0.1,0c-1.9,0.1-3.8,0.5-5.2,1.4
		c-0.1,0-0.1,0.1-0.2,0.1c-0.1,0.1-0.1,0.2-0.2,0.2c-1.8,1.8-5.9,2-7.8,3.9c-1.5,1.5-3,4.5-4.7,7.2c0,0,0,0.1,0,0.1
		c-6.1,7.1-10.9,15.8-12.6,22.9c-1.4,5.8-1.4,13.7-3.7,19.6c-0.6,1.6-3.3,10.6-1.2,12.4c1.4,1.2,7.5,2.1,9.2,0c1-1.1,9.7-4,12.4-7.2
		c3.2-3.8,4.9-10.4,7.1-16c0.4-0.9,0.8-1.8,1.3-2.8c1.3,2.4,2.2,4.4,2.8,5.6c1.1,2.5,2.3,6,3.3,9.8c-2.2,3.3-1.3,7.9,0.3,9.9
		c-6.3,2-3.3,8.8-3.6,9c-0.4,0.4-1.7,1-2.3,1.5c-0.7,0.7-0.8,2-0.8,3c0,1,0.1,1.8,0.3,2.6c-5.8,14.5-11.2,32.6-18.1,42.4
		c-2,0.9-4,1.7-6.4,2.2c-4.6,1.2-16.3,3.4-26.1,6.8c-0.4,0.6-0.9,1.1-1.5,1.7c-1,1-2.9,1-3.9,1.9c-0.8,0.8-3.1-0.1-3.9,0.7
		c-2.2,2.2-5.6,3.4-9.1,5.2c-0.4,0.2-1.6-0.3-1.9,0c-1.6,1.6-4.5,2.5-5.8,3.9c-2.7,2.7-4.9,5.6-7.8,8.5c-2.9,2.9,3,10.8,3.9,11.7
		c2.7,2.7,7.7,3.1,10.4,5.8c1.1,1.1,5-0.4,6.3,0.5c0.4,0,0.7,0.1,0.9,0.2c3,1.5,8.1,2.7,12.5,3.9c0-0.1,0.1-0.2,0.1-0.3
		c7.8-7.8,17.4-13.3,25.9-21.8c0.2-0.2,1.5-0.3,1.8-0.5c1.5-0.7,5.5-3.2,6.4-4.1c0.9-0.9,3.6-1.1,5-1.9c-1.1-0.5-2.1-1.1-2.7-1.7
		c-0.6-0.6-2.4-0.1-3.2-0.9c-3.3-3.3-6.8-3.6-6.8-10c0-1.9,0.4-3.1,1-3.9c0-0.1-0.1-0.1,0-0.1c1.1-1.1,4-4.8,4.5-4.8
		c0,0-0.6,2.6-0.6,2.6c0-0.2-0.3,1.7,0,2.3c0.6,1.3,1,3.3,1.9,4.2c0.1,0.1,0.1,0.4,0.1,0.8c0.9,0.5,2.5,2.2,3.1,2.5
		c3.8,1.9,14.7,7.7,19.6,7.7c3.1,0,5.8,0.3,8.4,1.6c0.6,0.3,3.1,0.5,6.1,0.7c0,0,0,0,0.1,0c0.4-0.2,0.8-0.1,1.3,0.1
		c0.7,0,1.4,0.1,2.1,0.1c0.1-0.1,0.1-0.1,0.2-0.2c0,0,0.7,0.1,1.6,0.2c3.8,0.1,7.6,0.1,9,0.1c2.5,0,6.8,0.8,9-0.3
		c2.4-1.2,7,0.7,8.7-1c0.3-0.3,11.5-0.8,12.9-2.3c0.4-0.4,1.8,0.2,2.3,0c2-1,9.9-1.6,10.9-2.6c1.1-1.1,3.4-1.1,4.5-2.3
		c2.3-2.3,3.5-1.5,5.5-3.5c0.9-0.9,4.1-3.7,5.1-4.8c1.5-1.5,3.1-3.4,4.8-5.1c1.4-1.4,4.6-7.1,5.1-8.9c1.2,0.1,1.7,3.3,2.4,6.3
		c0.7,1.3-2.7,4.6-2.9,5.8C-84,668.4-85,672-87,673c-1.8,0.9-6.8,5.9-8.2,7.4c-1.9,1.9-8.9,3.6-11.1,4.2c-1,0.3-6.8,0.8-8.5,1.6
		c-2.8,1.4-7.9,1.8-10,2.3c-5.3,1.1-19.3,1.8-28.2,1.8c-2.2,0-15.7,0.7-16.4,0c-0.4-0.4-1.6-0.6-3.1-0.7c1,1.7,1.8,3.4,1.8,3.4
		c0.8,0.8-0.5,4-0.5,4.5c0,3-1.2,24.4-2.3,25.5c-0.5,0.5,0.5,2.6,0,3.2c-0.2,0.2-0.6,3.2-0.9,6.4c2.6,0.5,5.3,0.8,7.8,1.6
		c5,1.7,11.6-1.7,16.5,0c3.3,1.1,23.6-0.7,25.3-2.3c1.2-1.2,5.8,0.3,7.4-0.5c1.4-0.7,5.5,0,6.4-0.9c2.4-2.4,7.2-2.5,10.6-4.1
		c1.4-0.7,3.6,0.3,5.1-0.5c0.8-0.4,2.6,0.1,4.4,0.9c3.5-0.1,6.3-0.4,9.8-0.4c4.2,0,10-2,16.2-5c6.8-1.5,15.1-3.3,15.5-3.7
		c3-3,10.8-2.1,13.8-5c2.1-2.1,4.8-2.9,6.9-5.1c1.9-1.9,4.5-4.1,7.3-6.4c0.5-1.3,1.7-2.6,2.8-3.7C-18.2,697.1-14.8,687.3-15.4,686.1
		z M-167.4,605c-0.1-0.2,0.5-0.3,0.6-0.3c-0.2-0.9-1.8-2.5-1.8-2.5c0.2-0.5,2.8,0.1,3.5,0.1c0.6,0,1.4-1.4,1.7-1.9
		c0.2-0.3,1-0.3,1.1-0.6c0-0.1,0-0.2,0-0.1c0,0,0,0.1,0,0.1c0.1,0.3,0.3,0.9,0.5,1.4c0.1,0.2-0.3,2.1,0.1,2.2c0.7,0.2,1.7,0,2.6,0.4
		c0.6,0.2,1.2,0.7,1.1,0.7c0-0.1-0.1,0.2-0.1,0.2c-0.1,0.3-0.9,0.6-1.2,0.8c-0.5,0.2-2.3-0.1-2.5,0.6c0,0,0.6,2.5,0.1,4
		c-0.3,0.9-2.3-2.2-2.5-2.2c-1.2-0.4-4.1,0.7-4.8,0.1c-0.8-0.6,0.8-2.2,1.7-2.9C-167.3,605-167.4,605-167.4,605z M-155.2,654.1
		c-1.8,2-4.3,5.9-6.8,6.8c-2,0.7-3.8,1.6-5.7,2.3c-3.2,1-14.5,1.8-17.4-0.2c-0.4-0.3-2,0.1-2.3-0.3c-0.1-0.1-0.2-0.2-0.2-0.3
		c0.2,0,0.5,0,0.7,0c0.9-0.3,1.9,0.3,2.7,0c3.7-1.2,10.3-1.9,12.8-5.5c2.4-3.5,4.9-6.4,7.7-10.5c1.2-1.7,1.1-5.5,2.5-6.6
		c0.7-0.5,0.5-4.4,0.3-5c-0.9-2.7,1.6-6,0-8.1c-3.9-5.2-13.4-10.7-22-8.3c0.8-1.9,5.3-3.5,11.1-4.6c1.5-0.3,3.9,0.9,5.4,0.4
		c0.9-0.3,2-0.3,3.1-0.1h0c1.9,0.3,3.9,1.2,5.1,2c3.4,2.4,7.5,5.2,9,9.8C-146.2,635.2-149,647.2-155.2,654.1z M-134.6,632.9
		c0,0-0.1,0.1-0.1,0.1c-0.2,0.2-0.7,0.6-1.1,1c-0.2,0.2-2.1,0.5-2,0.9c0,0.7,0.6,1.6,0.6,2.6c0,0.6-0.2,1.2-0.2,1.3c0,0,0,0,0,0
		c0,0,0,0,0,0c0,0-0.2,0-0.3,0c-0.3,0-0.9-0.6-1.2-0.9c-0.4-0.3-0.8-2.2-1.5-2.1c0,0-2.1,1.5-3.7,1.6c-1,0,1.2-3,1.2-3.1
		c0-1.3-2.1-3.5-1.8-4.5c0.3-0.9,2.3-0.1,3.4,0.5c0,0,0-0.1,0-0.1c0.1-0.1,0.5,0.3,0.6,0.5c0.7-0.5,1.7-2.6,1.7-2.6
		c0.5,0,0.9,2.7,1.2,3.3c0.2,0.5,1.8,0.8,2.4,0.9c0.4,0.1,0.7,0.8,1,0.8C-134.7,632.9-134.6,632.8-134.6,632.9z M-139.9,617.1
		c-0.4,0-2.1-0.2-3.9-0.5c-0.9,1.4-2,2.9-3,4.1c0,0,0,0.1-0.1,0.1c-0.5,0.8-1.1,1.6-1.4,1.8c-0.1,0.1-0.1,0-0.2-0.2c0,0-0.1,0-0.1,0
		c-0.1,0-0.3-1.4-0.3-2.4c0-1.6-0.5-2.5-0.7-3.9c-1.5-0.6-5.3-2-5.7-2c-0.3,0-0.8,0.2-0.8,0c0-0.2,0.2-0.3,0.3-0.3c0,0,0,0,0,0
		c-0.3-0.3,3.8-2,5.6-2.8c0-0.2-0.1-0.5,0.1-0.5c0-1.7,0.1-5.3,0.4-5.3c0,0,0,0,0,0l0,0c0,0,0,0,0,0c1.5,0.1,3.4,2.3,4.1,2.6
		c0,0,0.8,1.1,0.8,1.1c3-0.9,5.4-1,6.1-1.1c1.1-0.1-0.1,1.9-0.3,2.1c-0.4,0.4-1,1-1.5,1.6v0c-0.2,0.3-0.4,0.6-0.3,0.7
		c0.3,0.3,0.7,0.5,1,0.9c0.6,0.7,4.5,2.4,4.5,2.8c0,0,0,0.1-0.1,0.1c0.1,0.1,0.3,0.2,0.4,0.3C-132.8,618.3-139.7,617.1-139.9,617.1z
		"/>
	<path d="M-140.9,630.5c-0.1-0.1-0.3-0.2-0.5-0.4C-141.4,630.3-141.1,630.4-140.9,630.5z"/>
</g>
</svg>
