<?xml version="1.0" encoding="utf-8"?>
<!-- Generator: Adobe Illustrator 19.1.0, SVG Export Plug-In . SVG Version: 6.00 Build 0)  -->
<svg version="1.1" id="Layer_1" xmlns="http://www.w3.org/2000/svg" xmlns:xlink="http://www.w3.org/1999/xlink" x="0px" y="0px"
	 viewBox="-271 469 256 344" style="enable-background:new -271 469 256 344;" xml:space="preserve">
<g>
	<path d="M-230.5,595.8c-0.8,6.7,3.5,12.8,3.5,12.8c0.4-5,1.5-8.6,2.7-11.1c0.3,6.9,2.1,15.8,8.5,22.9c4.6,5.1,23.8,15.6,36.7,4.1
		c0.7,1.6,1.4,3.6,2,5.7c1.9,6.9-1.8,16.9-1.8,16.9s10.1-11.4,9.3-21.8c7.2-0.3,14.4-5.6,14.2-13.1c0,0-12.6,7-23.8-5.9
		c-6.5-7.5-27.4-28.2-55.7-21.3c2.9,0.6,6,1.6,9.1,2.8c0,0-0.1,0-0.1,0C-228.6,589.1-230.1,592.5-230.5,595.8z M-181.4,619.4
		L-181.4,619.4L-181.4,619.4C-181.4,619.4-181.4,619.4-181.4,619.4c-3.8,2.3-14.5,7-25.4-1.1c-7-5.2-6.7-17.6-4.7-23.7
		C-198.4,602-186.4,611.8-181.4,619.4z"/>
	<path d="M-164.4,749.4h-4.3c-4.5,0-9.7,0-12.8,0l-2.6,0c-3.7,0-5.5,1-6.3,1.9c-1.3,1.3-1.5,3.1-0.6,5.3c2.3,6,7.6,10.8,9.2,12.2
		c2,1.8,5,2.8,7.9,2.8c3,0,5.6-1.1,7.4-3c5-5.4,8-11.2,8.7-13c0.4-1,0.9-2.9-0.6-4.5C-159.6,750-161.6,749.4-164.4,749.4z"/>
	<path d="M-116.3,625.3c-0.8,10.4,9.3,21.8,9.3,21.8s-3.7-10-1.8-16.9c0.6-2.1,1.3-4.1,2-5.7c12.9,11.6,32.1,1,36.7-4.1
		c6.4-7.1,8.3-16,8.6-22.9c1.2,2.5,2.3,6.1,2.7,11.1c0,0,4.3-6.1,3.5-12.8c-0.4-3.3-1.9-6.7-4.7-7.9c0,0-0.1,0-0.1,0
		c3.1-1.2,6.2-2.1,9.1-2.8c-28.3-6.9-49.2,13.8-55.7,21.3c-11.2,12.8-23.8,5.9-23.8,5.9C-130.7,619.7-123.6,625-116.3,625.3z
		 M-74.3,594.6c2,6.1,2.3,18.5-4.7,23.7c-10.9,8.1-21.6,3.3-25.4,1.1c0,0,0,0,0,0C-99.4,611.8-87.4,602-74.3,594.6z"/>
	<path d="M-101.7,749.4l-2.6,0c-3.1,0-8.3,0-12.8,0h-4.3c-2.8,0-4.8,0.6-5.9,1.8c-1.5,1.5-1,3.4-0.6,4.5c0.7,1.8,3.7,7.6,8.7,13
		c1.8,1.9,4.4,3,7.4,3c2.9,0,5.8-1,7.9-2.8c1.6-1.3,6.9-6.2,9.2-12.2c0.9-2.2,0.7-4-0.6-5.3C-96.2,750.4-98,749.4-101.7,749.4z"/>
	<path d="M-143,594.7L-143,594.7C-142.9,594.8-142.9,594.7-143,594.7C-142.9,594.7-142.9,594.8-143,594.7L-143,594.7
		c8.6-0.1,18.3-11.9,18.3-11.9c-6.7,4-12.6,5.4-18.3,5.6c-5.7-0.1-11.6-1.5-18.3-5.6C-161.2,582.8-151.5,594.7-143,594.7z"/>
	<path d="M-37.6,681.6c-1.6,12-8.7,22.7-16.5,29.3c-2.1-15.2-2.5-37.2-2.5-41.8c0-9.8,6.4-16.4,8.2-17.5c1.7-1,3.6-2,5.6-3.1
		c12.1-6.5,27.1-14.5,27.1-29.3c0-10.8-6.2-15.5-10.3-18.6c-0.5-0.4-1-0.8-1.4-1.1c-1.4-1.1-2.5-2-2.9-2.9
		c-2.9-6.6-2.4-22.9-1.1-25.2c0.4-0.4,11.2-14,7.9-26.2c-1.4-5-4.6-8.9-9.5-11.4c-3.6-1.8-8-2.8-13.1-3c-0.1-1.3-0.3-2.6-0.6-3.9
		c-0.4-1.7-0.8-3.6-0.6-5.4c0.3-3.1,0.5-6.1,1.5-7.5c5.7-8.9,19.3-11.8,19.5-11.8l8.2-1.6l-5.4-6.4c-0.1-0.1-11.6-11.7-31-11.7
		c-5.3,0-10.7,0.9-16.1,2.6c-16.2,5.2-28.7,20.4-33.1,26.3c-2.1-0.7-4.2-1.3-6.4-1.8c-2.8-10.6,6-25.8,6-25.8s-9.1-2-22.6,10.2
		c-1.7-4.4-5.4-13.7-1.2-24.9c-19.7,7-24.7,17.6-26.2,27.3c-5.1-3.6-4.5-15.4-4.8-18.5c-5,0.6-19.5,14.7-18.9,32.4
		c-1.3,0.4-2.6,0.7-3.9,1.1c-4.3-5.9-16.8-21.1-33.1-26.3c-5.4-1.7-10.8-2.6-16.1-2.6c-19.4,0-30.9,11.6-31,11.7l-5.4,6.4l8.2,1.6
		c0.1,0,13.8,2.9,19.5,11.8c0.9,1.5,1.2,4.4,1.4,7.5c0.2,1.9-0.2,3.7-0.6,5.4c-0.3,1.3-0.6,2.6-0.6,3.9c-5.1,0.2-9.5,1.2-13.1,3
		c-4.8,2.5-8.1,6.4-9.5,11.4c-3.3,12.2,7.5,25.8,7.9,26.2c1.3,2.3,1.8,18.6-1.1,25.2c-0.4,0.9-1.5,1.8-2.9,2.9
		c-0.4,0.4-0.9,0.7-1.4,1.1c-4.1,3.1-10.3,7.8-10.3,18.6c0,14.8,15,22.8,27.1,29.3c2,1.1,3.9,2.1,5.6,3.1c1.8,1,8.2,7.6,8.2,17.5
		c0,4.6-0.4,26.6-2.5,41.8c-7.7-6.6-14.9-17.3-16.5-29.3c0,0-19.6,15.1-13.8,47.5c3.5,19.8,15.5,30.9,31.5,36.7
		c5.9,12.8,19.7,30.6,45.1,33.2c9.7,7.9,23.1,13.1,42.6,13.1v0c0,0,0,0,0,0c0,0,0,0,0,0v0c19.5,0,32.9-5.2,42.6-13.1
		c25.4-2.6,39.2-20.5,45.1-33.2c15.9-5.8,27.9-16.9,31.5-36.7C-18,696.7-37.6,681.6-37.6,681.6z M-66.7,494.2
		c3.8-1.2,7.8-1.8,11.8-1.8c7.4,0,13.4,2,16.5,3.4c-2.1,0.9-4.3,2.1-6.5,3.6c-1.6-0.3-3.7-0.5-6.2-0.5c-7,0-13.7,2.1-19.3,6
		c-8.3,5.8-12.1,11.3-13.8,15c-1.5-0.8-3-1.7-4.7-2.5c-1-0.5-2.1-1-3.2-1.5C-87.9,509.8-78.7,498.1-66.7,494.2z M-67.8,533.7
		c-1.5-2.1-3.8-4.7-7-7.5c1-3.2,3.7-10.8,9.1-15.1c3.7-2.9,8.1-4.5,13.1-4.7c-0.5,0.7-1.1,1.4-1.5,2.2c-2.2,3.5-2.6,7.8-2.9,11.9
		c-0.4,4.3-0.7,8.4-2.9,11.4C-62.9,532.5-65.5,533.1-67.8,533.7z M-225.8,531.9c-2.2-3-2.6-7.1-2.9-11.4c-0.4-4.1-0.7-8.4-2.9-11.9
		c-0.5-0.8-1-1.5-1.5-2.2c5,0.2,9.4,1.8,13,4.7c5.4,4.3,8.1,11.9,9.1,15.1c-3.3,2.8-5.5,5.4-7,7.5
		C-220.4,533.1-223,532.5-225.8,531.9z M-201.7,519.8c-1.8-3.6-5.6-9.2-13.8-15c-5.6-3.9-12.2-6-19.3-6c-2.4,0-4.5,0.2-6.2,0.5
		c-2.2-1.5-4.4-2.6-6.5-3.6c3.2-1.3,9.2-3.4,16.5-3.4c4.1,0,8.1,0.6,11.8,1.8c11.9,3.9,21.2,15.5,25.3,21.5c-1.1,0.5-2.1,1-3.2,1.5
		C-198.7,518.1-200.3,518.9-201.7,519.8z M-232.6,643.1c-1.8-1-3.7-2.1-5.6-3.1c-10-5.4-20.2-10.9-20.2-20.4c0-7.4,2.9-9.8,5.9-12.2
		l0.3-0.3c0.5-0.4,1-0.8,1.5-1.2c-0.6,4.8-1.3,8.9-1.8,10c0,0,8.1-10.1,10.5-29.7c0.9-7.7-0.7-23-3.4-28.8c0.1,3.3,0,6.5-0.2,9.6
		c-0.3-0.6-0.6-1-0.9-1.4c-2.2-2.7-7.9-11.7-6.3-17.8c0.6-2.3,2.1-4,4.5-5.3c2.5-1.3,5.9-1.9,10.1-1.9c8.2,0,17.3,2.5,22,4
		c16.8,5.3,37.1,20.7,42.9,25.3c0.2,0.1,0.3,0.2,0.3,0.2l3.7,2.6l-2.3-3.9c-0.1-0.2-12.8-21-35.6-31.2c1.3-1.9,4.9-5.4,14.5-10.1
		c14.4-7,31.1-10.6,49.8-10.6c18.7,0,35.4,3.6,49.8,10.6c9.5,4.7,13.1,8.2,14.5,10.1c-22.8,10.1-35.5,30.9-35.6,31.2l-2.3,3.9
		l3.7-2.6c0,0,0.1-0.1,0.3-0.2c5.8-4.6,26.1-19.9,42.9-25.3c4.7-1.5,13.8-4,22-4c4.2,0,7.6,0.7,10.1,1.9c2.4,1.2,3.8,2.9,4.5,5.3
		c1.7,6.1-4.1,15.1-6.3,17.8c-0.3,0.4-0.6,0.9-0.9,1.4c-0.2-3.1-0.3-6.4-0.2-9.6c-2.7,5.9-4.4,21.1-3.4,28.8
		c2.4,19.6,10.5,29.7,10.5,29.7c-0.5-1-1.2-5.2-1.8-10c0.5,0.4,1,0.8,1.5,1.2l0.3,0.3c3.1,2.5,6,4.8,6,12.2
		c0,9.5-10.3,15.1-20.2,20.4c-1.9,1-3.8,2.1-5.6,3.1c-5.8,3.3-12.1,11.2-12.8,22.9c-0.6,9.8,0.6,33.4,2.3,50.8
		c-8.3,3.2-17.9,4.3-26.6,4.5c-1.4-2.8-2.6-5.7-3.7-8.8c-0.4-1.3-13.1-34.2-17.7-41.7c3.7,26.1,11.7,49.4,15.7,60
		c-2.3-0.3-4.9-0.5-7.8-0.5c0,0-27.8,0-39.1,0h0h0c-11.3,0-39.1,0-39.1,0c-2.9,0-5.5,0.2-7.8,0.5c4-10.7,12.1-33.9,15.8-60
		c-4.6,7.5-17.2,40.4-17.7,41.7c-1,3.1-2.3,6-3.7,8.8c-8.7-0.2-18.2-1.3-26.6-4.5c1.7-17.4,2.9-41,2.3-50.8
		C-220.5,654.4-226.8,646.5-232.6,643.1z M-248.3,740.1c-8.1-13.4-5.9-36.2-2.5-39.6c7.3,23.1,31.6,29.7,49.8,30.4
		c-1.8,2.8-3.5,5.1-4.7,6.7c-0.3,0.3-0.7,0.6-0.9,1c-4.8,5.2-5.8,12.4-2.7,21.3c-4.7-0.1-9.5-0.7-14.1-2c-0.7-2-1.1-3.5-1.1-4.1
		h-4.8l4.8,0l-8.9,0C-239.4,750.6-244.6,746.1-248.3,740.1z M-217.6,769.2c4,0.8,8.2,1.3,12.5,1.6c2.3,5.4,5,10.6,8.2,15.5
		C-206.6,782.4-213.2,775.6-217.6,769.2z M-142.9,802.8c-40.6-0.1-52.5-30.7-56.9-43.4c-2.4-7-2.3-12.2,0.6-15.5
		c1.9-2.2,6.4-4.8,16.5-4.8l10.6,0c7.8,0,17.6,0,29.2,0c11.6,0,21.4,0,29.2,0l10.6,0c10.1,0,14.6,2.6,16.5,4.8
		c2.8,3.2,3,8.4,0.6,15.5C-90.5,772-102.3,802.7-142.9,802.8z M-88.9,786.3c3.3-4.9,5.9-10.1,8.2-15.5c4.3-0.3,8.4-0.9,12.5-1.6
		C-72.6,775.6-79.3,782.4-88.9,786.3z M-37.6,740.1c-3.6,6-8.8,10.5-14.9,13.8h-8.9c0,0.6-0.3,2-1.1,4.1c-4.6,1.3-9.4,2-14.1,2
		c3-8.9,2.1-16.1-2.7-21.3c-0.3-0.3-0.6-0.6-1-1c-1.2-1.6-2.9-3.9-4.7-6.7c18.2-0.8,42.5-7.4,49.8-30.4
		C-31.7,703.9-29.4,726.7-37.6,740.1z"/>
</g>
</svg>
