<?xml version="1.0" encoding="utf-8"?>
<!-- Generator: Adobe Illustrator 19.1.0, SVG Export Plug-In . SVG Version: 6.00 Build 0)  -->
<svg version="1.1" id="Layer_1" xmlns="http://www.w3.org/2000/svg" xmlns:xlink="http://www.w3.org/1999/xlink" x="0px" y="0px"
	 viewBox="-271 358 256 566" style="enable-background:new -271 358 256 566;" xml:space="preserve">
<g>
	<path d="M-73.7,906.7l5.4-90.4l15-25.6c0,0-34.1,14-91.2,14c-57.1,0-90.7-13.7-90.7-13.7l16.8,27.9l5.9,87.8
		c0,9.4,31.1,17.1,69.4,17.1C-104.8,923.8-73.7,916.2-73.7,906.7"/>
	<path d="M-76.8,685.9c-1.5-14.4,31.5-35.2,23-35.9c-18.2,1-27.3,21.3-36.4,42.6c-3.4,7.8-14.8,41-22.4,36.9
		c-7.5-4.1,9.8-31.4,14.6-47.6c-5.6,4.1-26.1,20-31.4,5.1c-8.5,7.2-26.7,11.1-24.6-7.8c-4.5,8-14.7,19.2-26.9,14.5
		c-16-6.1,9.3-57.1,15.6-54.5c6.3,2.6-1.3,14.2-3.2,18.7c-4.3,9.9-9.4,22.4-6,24.9c5.8,4.4,21.4-16.5,21.7-17
		c2.9-3.9,11.3-29.2,18-26.3c6.7,2.9-16.8,36.3-8,42.9c1.8,1.3,9-0.8,13.4-5.6c2.9-3.1,1.9-9.9,11.4-32.6
		c9.5-22.7,18-50.9,24.5-48.8c6.5,2.1,1.1,16.6-1.2,22c-11,25.4-30,67.2-21,64.1c9-3.2,13.6-3.4,22.4-13.6s8.4-27.2,14.2-26.8
		c5.8,0.4,4.9,5.8,3.4,9.9c5.8-6.6,27.3-20.4,32.4-6.7C-37,660.7-74,684.2-64.8,683c9-1.2,23.5-10.4,29.7-18.7l17.1-153.6
		c0,0-17.2,14.2-126.6,14.2c-109.4,0-124.8-13.9-124.8-13.9l14.5,140.2c7.7-21.9,26.1-66.3,55-64.8c13.1,0.7,30.7,26,15.7,26.9
		c-6.4,0.4-7-12.6-14.5-14.5c-5.4-1.4-13,3-17.9,7.8c-9.8,9.5-30.7,47.2-28,66c3.5,23.9,33-8.3,38-17.9c3.5-6.7,5.9-26.7,13.6-24.6
		c7.7,2.1-0.7,22.7-6.2,41c-6.3,20.5-9.6,42.1-17.4,39.6c-7.9-2.5,4.9-28.9,4.5-33.6c-7.4,6.8-21,24-38.4,15.5l9,87.1
		c0,0,24,19,96.3,19s97.2-18.7,97.2-18.7l11.2-100.9C-45.8,687.9-74.9,703.8-76.8,685.9"/>
</g>
<path d="M-90.8,484.5l11.4-45l63-66.2c0,0,0,0,0,0c0,0,0,0,0,0l0.1-0.1l0,0c1.4-1.9-1-6.5-5.5-10.3c-4.6-3.9-9.5-5.7-11.1-3.8
	l-66.8,70.7l-13.2,53.8c-9.6-0.3-19.6-0.5-29.9-0.5c-70.3,0-127.4,8-127.4,17.9c0,9.9,57,17.9,127.4,17.9c70.3,0,127.4-8,127.4-17.9
	C-15.5,493.5-46.4,487.3-90.8,484.5z M-97.5,509.7c0,0-2.5,0.6-9.7,0.6c-7.3,0-12.4,0-14.5-1.9c-0.6-0.5-0.9-1.5-0.9-2.2
	c0-1.3,0.9-2,2.1-2.5l1.1,1.7c-0.5,0.2-0.8,0.4-0.8,0.6c0,1,7.4,1.6,13.1,1.6c5.7-0.1,12.5-0.5,12.6-1.5c0-0.3-0.5-0.6-1.4-0.8
	l1.1-1.7c1.5,0.5,2.8,1.3,2.8,2.9C-92,509-95.3,509.4-97.5,509.7z"/>
</svg>
