<?xml version="1.0" encoding="utf-8"?>
<!-- Generator: Adobe Illustrator 19.1.0, SVG Export Plug-In . SVG Version: 6.00 Build 0)  -->
<svg version="1.1" id="Layer_1" xmlns="http://www.w3.org/2000/svg" xmlns:xlink="http://www.w3.org/1999/xlink" x="0px" y="0px"
	 viewBox="-271 513 256 255" style="enable-background:new -271 513 256 255;" xml:space="preserve">
<g transform="translate(128.000000, 127.000000) scale(1, -1) translate(-128.000000, -127.000000) translate(0.000000, -1.000000)">
	<path d="M-152.7-363.3h19.8l4.9,6.7v52.7h-29.6v-52.7L-152.7-363.3"/>
	<path d="M-165.5-386.9l6.1,18.7l-4.9,6.7l-50.4,16.3l-9.2-28l50.4-16.3L-165.5-386.9"/>
	<path d="M-146.9-406.2l-16,11.6l-8-2.6l-31.2-42.7l24-17.3l31.2,42.7V-406.2"/>
	<path d="M-122.7-394.6l-16-11.6l0-8.3l31.2-42.7l24,17.3l-31.2,42.7L-122.7-394.6"/>
	<path d="M-126.3-368.1l6.1-18.7l8-2.6l50.4,16.3l-9.2,28l-50.4-16.3L-126.3-368.1"/>
	<path d="M-142.8-258.1c-70.5,0-127.8-57-127.8-127c0-70.1,57.3-127.1,127.8-127.1c70.5,0,127.8,57,127.8,127.1
		C-15.1-315.1-72.4-258.1-142.8-258.1L-142.8-258.1L-142.8-258.1z M-142.8-283.8c56.3,0,101.9-45.4,101.9-101.3
		c0-56-45.6-101.4-101.9-101.4c-56.3,0-101.9,45.4-101.9,101.4C-244.7-329.2-199.1-283.8-142.8-283.8L-142.8-283.8z"/>
	<path d="M-65.4-413.4l-38.3,12.4l2.5,7.8l38.3-12.4L-65.4-413.4"/>
	<path d="M-114.3-352.2l-6.6,4.8l23.7,32.4l6.6-4.8L-114.3-352.2"/>
	<path d="M-170.9-351.9l-23.7,32.4l6.6,4.8l23.7-32.4L-170.9-351.9"/>
	<path d="M-220.4-412.9l-2.5,7.8l38.3,12.4l2.5-7.8L-220.4-412.9"/>
	<path d="M-147.2-466.2h8.2v40.1h-8.2V-466.2L-147.2-466.2z"/>
</g>
</svg>
