<?xml version="1.0" encoding="utf-8"?>
<!-- Generator: Adobe Illustrator 19.1.0, SVG Export Plug-In . SVG Version: 6.00 Build 0)  -->
<svg version="1.1" id="Layer_1" xmlns="http://www.w3.org/2000/svg" xmlns:xlink="http://www.w3.org/1999/xlink" x="0px" y="0px"
	 viewBox="-271 542 256 198" style="enable-background:new -271 542 256 198;" xml:space="preserve">
<style type="text/css">
	.st0{opacity:0.8;}
</style>
<g>
	<polygon points="-196.3,630.4 -241.5,712 -212.8,684.9 -166.8,739.1 	"/>
	<path class="st0" d="M-241.5,712l45.2-81.6l-28.7,27.1l-45.9-54.2L-241.5,712"/>
	<polygon points="-84.7,636.4 -115.6,681.9 -77.2,739.1 -15.1,739.1 	"/>
	<path class="st0" d="M-21.1,542.6h-62l-38,56.1v-56.1H-178v58.2l30.3,111.8l7.1,26.5h19.5V690L-21.1,542.6"/>
</g>
</svg>
