<?xml version="1.0" encoding="utf-8"?>
<!-- Generator: Adobe Illustrator 19.1.0, SVG Export Plug-In . SVG Version: 6.00 Build 0)  -->
<svg version="1.1" id="Layer_1" xmlns="http://www.w3.org/2000/svg" xmlns:xlink="http://www.w3.org/1999/xlink" x="0px" y="0px"
	 viewBox="-698.5 287.2 249.4 270.1" style="enable-background:new -698.5 287.2 249.4 270.1;" xml:space="preserve">
<style type="text/css">
	.st0{fill:none;stroke:#000000;stroke-width:3;stroke-miterlimit:10;enable-background:new    ;}
	.st1{fill:#050505;}
	.st2{fill:none;}
</style>
<g>
	<g>
		<g>
			<path class="st0" d="M-504,379.2c-0.2,0-0.4,0-0.7,0l-9.3-12.4h-83.8l-9.3,12.4c-0.2,0-0.4,0-0.6,0c-2.9,0-5.7,0.7-8.1,2
				c-0.6-3.8-3.2-6.5-5-6.7c-2.1-0.2-4.7-1.6-8.9-0.3c-0.3,0.1-0.7,0.2-1,0.3l0,0c-3,1.2-6.8,3.7-11.7,8.7l-7.3-16.9l8.3-10.9
				c0,0,1.2,15.9,13.4,11.4c0.4-0.1,0.7-0.3,1-0.5c0.1,0,0.1-0.1,0.2-0.1c0.2-0.1,0.5-0.3,0.7-0.4c0.1-0.1,0.2-0.1,0.3-0.2
				c0.2-0.1,0.3-0.2,0.4-0.4c0.1-0.1,0.3-0.2,0.4-0.4c0.1-0.1,0.1-0.1,0.2-0.2c7.1-7.8-1.3-29.4-11.1-29.4l-19.8,11.4
				c0,0,0.7-1.9,2.8-4.8l0,0c0.2-0.3,0.5-0.6,0.7-1c2.9-3.7,7.9-8.6,16.3-12.9c0,0,0.5-0.3,1.2-1c1.6-1.6,4.2-5.3,1.5-12
				c-0.1-0.2-0.3-0.3-0.3-0.3c-4.5-8.7-38.5-1.6-43.9,42.6c0,0-2.8-2.7-4.2-7.3c-0.6-2.2-0.9-4.7-0.5-7.7c0.3-1.8-0.2-3.1-1.2-4
				c-3.9-3.8-16.2,1-13.2,17.1c3.7,19.8,22.8,23.9,22.8,23.9s4.9,7.9,3.1,17.7l0,0c-0.2,1.3-0.5,2.4-0.9,3.5
				c-0.1,0.4-0.3,0.8-0.4,1.2l0,0c0,0,0,0,0,0.1c0,0,7.3,9.2,14.7,6.6l0,0l0,0h0.1l0,0c0.1,0,0.1,0,0.2,0l0,0c0.1,0,0.2,0,0.3,0l0,0
				c0.1,0,0.2,0,0.3,0l0,0c0.1,0,0.3,0,0.4,0c0,0,0,0,0.1,0c0.1,0,0.3,0,0.4,0c0,0,0,0,0.1,0c0.2,0,0.3,0,0.5,0h0.1
				c0.2,0,0.3,0,0.5,0h0.1c0.2,0,0.4,0,0.5,0h0.1c0.2,0,0.4,0,0.6-0.1h0.1c0.2,0,0.4-0.1,0.6-0.1h0.1c0.2,0,0.4-0.1,0.6-0.1h0.1
				c0.2,0,0.4-0.1,0.6-0.1c0.1,0,0.1,0,0.2,0c0.2-0.1,0.4-0.1,0.6-0.2c0.1,0,0.1,0,0.2-0.1c0.2-0.1,0.4-0.1,0.6-0.2
				c0.1,0,0.1-0.1,0.2-0.1c0.2-0.1,0.4-0.1,0.5-0.2c0.1,0,0.1-0.1,0.2-0.1c0.2-0.1,0.3-0.2,0.5-0.3c0.1,0,0.2-0.1,0.2-0.1
				c0.2-0.1,0.3-0.2,0.5-0.3c0.1-0.1,0.2-0.1,0.3-0.2s0.3-0.2,0.4-0.3c0.1-0.1,0.2-0.1,0.3-0.2c0.1-0.1,0.2-0.2,0.3-0.3
				c0.1-0.1,0.2-0.2,0.3-0.3c0.1-0.1,0.2-0.2,0.3-0.3c0.1-0.1,0.2-0.2,0.3-0.4c0.1-0.1,0.2-0.2,0.2-0.3c0.1-0.1,0.2-0.3,0.3-0.4
				c0.1-0.1,0.1-0.2,0.2-0.3c0.1-0.2,0.2-0.4,0.3-0.6c0-0.1,0.1-0.1,0.1-0.2c0.1-0.2,0.2-0.5,0.3-0.7v-0.1c0.8-2,1.2-4.7,0.8-8.2
				c0,0,5.3,8.2,17.1,1.9c0,0,0,0,0.1,0l0,0c0,0.5-0.1,1-0.1,1.5c0,9.8,7.9,17.7,17.7,17.7c0.8,0,1.7-0.1,2.5-0.2l3.5,64.6
				c0,0,10.7,16,45.1,16c29,0,46.6-16,46.6-16l3.5-64.6c0.8,0.1,1.7,0.2,2.5,0.2c9.8,0,17.7-7.9,17.7-17.7
				C-486.3,387.1-494.2,379.2-504,379.2z M-642.5,383.3l-0.2-0.5L-642.5,383.3C-642.4,383.2-642.5,383.3-642.5,383.3z"/>
			<g>
				<circle class="st1" cx="-548.4" cy="506.2" r="3.1"/>
				<path class="st1" d="M-555.9,517.1c0.8-3,1.3-6.8,1.3-10.9c0-4.2-0.5-8-1.3-10.9c-0.8,3-1.3,6.8-1.3,10.9
					S-556.7,514.2-555.9,517.1z"/>
			</g>
			<path d="M-555.9,439.1c-3.5,0-6.7-0.6-9.4-1.7c2.2,2.8,5.5,4.6,9.4,4.6c3.8,0,7.2-1.8,9.4-4.6
				C-549.2,438.5-552.4,439.1-555.9,439.1z M-555.9,469.5c-5.9,0-11.4-1.1-16-2.9c3.7,4.8,9.5,7.8,16,7.8s12.3-3.1,16-7.8
				C-544.5,468.4-549.9,469.5-555.9,469.5L-555.9,469.5z"/>
		</g>
	</g>
</g>
<path class="st1" d="M-499,347.6l-0.5-0.9l0.4-3.1l4.5-29.4c0,0-13.7-27-61-27c-57.4,0-61.6,27-61.6,27l4.3,22.4
	c-35.6,17.2-61.3,52.2-65.7,93.4c-0.9,7-1.2,13.6-1.1,19.9c0.6,7.5,1.8,15.2,4,22.8c8.3,28.5,35,53.3,35,53.3
	c19.8,18.8,46.2,30.6,75.3,31.3c0.9,0,1.8,0,2.7,0c1.2,0,2.5,0,3.7-0.1c0.3,0,0.6,0,0.9,0c1.1,0,2.3-0.1,3.4-0.2c0.1,0,0.1,0,0.2,0
	c2.7-0.2,5.3-0.5,8-0.9l0,0c55-7.9,97.4-55.7,97.4-113.4C-448.9,403.1-468.8,368.2-499,347.6z M-542.4,379.4l-3.9,6.4
	c0,0,1.6,9.7-0.1,16.7h-18.7c-1.7-7-0.1-16.7-0.1-16.7l-3.9-6.4L-542.4,379.4L-542.4,379.4z M-538.3,551.6c-2.7,0.6-5.4,1.1-8.1,1.5
	v-6.6c0-0.7-0.6-1.2-1.2-1.2h-16.5c-0.7,0-1.2,0.6-1.2,1.2v7.8c-2.7-0.1-5.4-0.2-8.1-0.5V544c0-3.5,2.9-6.4,6.4-6.4h22.3
	c3.5,0,6.4,2.8,6.4,6.4V551.6L-538.3,551.6z M-497.4,517.3h-3.2l-5.4,6.7v4.2h3.2v2.1h-8.6v-2.1h3.2V524l-5.4-6.7h-3.2v-2.1h8.2v2.1
	h-2.2l3.8,4.7l3.9-4.7h-2.2l-0.3-2.1h8.2V517.3z M-487.4,500c-6.6-6.2-14.2-11.6-22.9-16l-1,17.9c0,0-17.1,15.6-45.3,15.6
	c-33.6,0-43.9-15.6-43.9-15.6l-0.9-17.9c-69-3-55.8-75.7-55.8-75.7l-9.3-4.2c9.8-26.9,29.6-49,54.8-61.6l4.7,24.3h-20.9l4.2,12.6
	h54.2l0.4,2c-15.6-4.3-26,8.5-26,8.5c14.3-7.7,23.7-7.2,23.7-7.2l2.6,3.3c-5,10-16.8,10.8-16.8,10.8c12.4,1.3,16.9-6.4,16.9-6.4
	c-0.7,6.1,0.6,14.1,0.6,14.1h-0.1l0,0c-5.5-1.4-12.9-1.9-22.5,0.5l-36.9,36.3c0,0,13.3,9.9,34.1,7.2c19.8-2.6,36.2-22.8,37.5-35.4
	l0.1,0.1l0,0l0.1,0.1c1.5,12.6,17.7,32.7,37.5,35.3c20.8,2.7,34.1-7.2,34.1-7.2s-12.5-30.2-36.9-36.3c-9.3-2.3-16.6-2-22-0.6
	c0.2-1,1.2-8.3,0.6-14c0,0,4.5,7.7,16.9,6.4c-0.3,0-12.1-0.8-17.1-10.8l2.6-3.3c0,0,9.3-0.5,23.7,7.2c0,0-10.4-12.8-26-8.5l0.4-2h54
	l4.3-12.6h-19l2.5-16.4c29.1,20.1,48.3,54,48.3,92.2c0,25.4-8.5,48.9-22.7,67.7C-478.9,506.3-483.2,502.9-487.4,500z"/>
<path class="st2" d="M-674.3,383.1c0,0,2.6,3.3,1.5,7.7c-0.6,2.3-13.9,43.6-2.8,81.8c8.3,28.5,35,53.3,35,53.3
	c20.4,19.4,47.8,31.3,78,31.3"/>
</svg>
