<?xml version="1.0" encoding="utf-8"?>
<!-- Generator: Adobe Illustrator 19.1.0, SVG Export Plug-In . SVG Version: 6.00 Build 0)  -->
<svg version="1.1" id="Layer_1" xmlns="http://www.w3.org/2000/svg" xmlns:xlink="http://www.w3.org/1999/xlink" x="0px" y="0px"
	 viewBox="1173 -505 1188 1188" style="enable-background:new 1173 -505 1188 1188;" xml:space="preserve">
<path d="M2361,451c0,26.7-9.3,49.3-28,68l-136,136c-18.7,18.7-41.3,28-68,28s-49.3-9.3-68-28l-294-294l-294,294
	c-18.7,18.7-41.3,28-68,28c-26.7,0-49.3-9.3-68-28l-136-136c-18.7-18.7-28-41.3-28-68s9.3-49.3,28-68l294-294l-294-294
	c-18.7-18.7-28-41.3-28-68s9.3-49.3,28-68l136-136c18.7-18.7,41.3-28,68-28c26.7,0,49.3,9.3,68,28l294,294l294-294
	c18.7-18.7,41.3-28,68-28s49.3,9.3,68,28l136,136c18.7,18.7,28,41.3,28,68s-9.3,49.3-28,68L2039,89l294,294
	C2351.7,401.7,2361,424.3,2361,451z"/>
</svg>
