<?xml version="1.0" encoding="utf-8"?>
<!-- Generator: Adobe Illustrator 19.1.0, SVG Export Plug-In . SVG Version: 6.00 Build 0)  -->
<svg version="1.1" id="Layer_1" xmlns="http://www.w3.org/2000/svg" xmlns:xlink="http://www.w3.org/1999/xlink" x="0px" y="0px"
	 viewBox="999 -743 1536 1536" style="enable-background:new 999 -743 1536 1536;" xml:space="preserve">
<path d="M2215,89V-39c0-17.3-6.3-32.3-19-45s-27.7-19-45-19h-256v-256c0-17.3-6.3-32.3-19-45s-27.7-19-45-19h-128
	c-17.3,0-32.3,6.3-45,19s-19,27.7-19,45v256h-256c-17.3,0-32.3,6.3-45,19s-19,27.7-19,45V89c0,17.3,6.3,32.3,19,45s27.7,19,45,19
	h256v256c0,17.3,6.3,32.3,19,45s27.7,19,45,19h128c17.3,0,32.3-6.3,45-19s19-27.7,19-45V153h256c17.3,0,32.3-6.3,45-19
	S2215,106.3,2215,89z M2535,25c0,139.3-34.3,267.8-103,385.5S2270.2,621.3,2152.5,690c-117.7,68.7-246.2,103-385.5,103
	s-267.8-34.3-385.5-103c-117.7-68.7-210.8-161.8-279.5-279.5S999,164.3,999,25s34.3-267.8,103-385.5s161.8-210.8,279.5-279.5
	c117.7-68.7,246.2-103,385.5-103s267.8,34.3,385.5,103c117.7,68.7,210.8,161.8,279.5,279.5S2535-114.3,2535,25z"/>
</svg>
